pipelinetb.vcd
$date
	Thu Jun 19 19:51:25 2025
$end
$version
	Icarus Verilog
$end
$timescale
	1s
$end
$scope module testpipeline $end
$scope module uut $end
$var wire 1 ! clk1 $end
$var wire 1 " clk2 $end
$var reg 32 # EX_MEM_ALUOut [31:0] $end
$var reg 32 $ EX_MEM_B [31:0] $end
$var reg 32 % EX_MEM_IR [31:0] $end
$var reg 32 & EX_MEM_cond [31:0] $end
$var reg 3 ' EX_MEM_type [2:0] $end
$var reg 1 ( HALTED $end
$var reg 32 ) ID_EX_A [31:0] $end
$var reg 32 * ID_EX_B [31:0] $end
$var reg 32 + ID_EX_IR [31:0] $end
$var reg 32 , ID_EX_Imm [31:0] $end
$var reg 32 - ID_EX_NPC [31:0] $end
$var reg 3 . ID_EX_type [2:0] $end
$var reg 32 / IF_ID_IR [31:0] $end
$var reg 32 0 IF_ID_NPC [31:0] $end
$var reg 32 1 MEM_WB_ALUOut [31:0] $end
$var reg 32 2 MEM_WB_IR [31:0] $end
$var reg 32 3 MEM_WB_LMD [31:0] $end
$var reg 3 4 MEM_WB_type [2:0] $end
$var reg 32 5 PC [31:0] $end
$var reg 1 6 TAKEN_BRANCH $end
$upscope $end
$upscope $end
$enddefinitions $end
#0
$dumpvars
06
b0 5
bx 4
bx 3
bx 2
bx 1
bx 0
bx /
bx .
bx -
bx ,
bx +
bx *
bx )
0(
bx '
bx &
bx %
bx $
bx #
0"
0!
$end
#5
b1 5
1!
#7
b1 0
b101000000000010000000000001010 /
#10
b0 )
1"
#12
b1 .
b1010 ,
b1 -
b101000000000010000000000001010 +
b1 *
#15
0!
#20
0"
#25
b10 5
1!
#27
b1010 #
b101000000000010000000000001010 %
b1 '
b10 0
b101000000000010000000000010100 /
#30
1"
#32
b1010 1
b101000000000010000000000001010 2
b1 4
b10100 ,
b10 -
b101000000000010000000000010100 +
#35
0!
#40
0"
#45
b11 5
1!
#47
b11 0
b101000000000010000000000011001 /
b10100 #
b101000000000010000000000010100 %
#50
1"
#52
b11001 ,
b11 -
b101000000000010000000000011001 +
b1010 *
b10100 1
b101000000000010000000000010100 2
#55
0!
#60
0"
#65
b100 5
1!
#67
b11001 #
b101000000000010000000000011001 %
b100 0
b1100111001110111100000000000 /
#70
1"
#72
b11001 1
b101000000000010000000000011001 2
b0 .
b111100000000000 ,
b100 -
b1100111001110111100000000000 +
bx *
bx )
#75
0!
#80
0"
#85
b101 5
1!
#87
b101 0
bx #
b1100111001110111100000000000 %
b0 '
#90
1"
#92
b101 -
bx 1
b1100111001110111100000000000 2
b0 4
#95
0!
#100
0"
#105
b110 5
1!
#107
b110 0
b1000100010000000000000 /
#110
1"
#112
b10000000000000 ,
b110 -
b1000100010000000000000 +
b10 *
b11001 )
#115
0!
#120
0"
#125
b111 5
1!
#127
b111 0
b1100111001110111100000000000 /
b11011 #
b1000100010000000000000 %
#130
1"
#132
b111100000000000 ,
b111 -
b1100111001110111100000000000 +
bx *
bx )
b11011 1
b1000100010000000000000 2
#135
0!
#140
0"
#145
b1000 5
1!
#147
bx #
b1100111001110111100000000000 %
b1000 0
b100000110010100000000000 /
#150
1"
#152
bx 1
b1100111001110111100000000000 2
b10100000000000 ,
b1000 -
b100000110010100000000000 +
b11 *
b11011 )
#155
0!
#160
0"
#165
b1001 5
1!
#167
b1001 0
bx /
b11110 #
b100000110010100000000000 %
#170
1"
#172
bx ,
b1001 -
bx +
bx *
bx )
b11110 1
b100000110010100000000000 2
#175
0!
#180
0"
#185
b1010 5
1!
#187
bx %
b1010 0
#190
1"
#192
bx 2
b1010 -
#195
0!
#200
0"
#205
b1011 5
1!
#207
b1011 0
#210
1"
#212
b1011 -
#215
0!
#220
0"
#225
b1100 5
1!
#227
b1100 0
#230
1"
#232
b1100 -
#235
0!
#240
0"
#245
b1101 5
1!
#247
b1101 0
b11111100000000000000000000000000 /
#250
b0 *
b0 )
1"
#252
b101 .
b0 ,
b1101 -
b11111100000000000000000000000000 +
#255
0!
#260
0"
#265
b1110 5
1!
#267
b11111100000000000000000000000000 %
b101 '
b1110 0
bx /
#270
1"
#272
b11111100000000000000000000000000 2
b101 4
bx ,
b1110 -
bx +
bx *
bx )
#275
0!
#280
0"
#285
b1111 5
1!
#287
b1111 0
bx %
1(
